[
  {
    "description": "    Display the title",
    "keyword": "Feature",
    "name": "Go to the home page",
    "line": 1,
    "id": "go-to-the-home-page",
    "tags": [],
    "uri": "e2e\\src\\features\\app.feature",
    "elements": [
      {
        "id": "go-to-the-home-page;home-page",
        "keyword": "Scenario",
        "line": 4,
        "name": "Home Page",
        "tags": [],
        "type": "scenario",
        "steps": [
          {
            "arguments": [],
            "keyword": "Given ",
            "line": 5,
            "name": "I am on the home page",
            "result": {
              "status": "undefined"
            }
          },
          {
            "arguments": [],
            "keyword": "When ",
            "line": 6,
            "name": "I do nothing",
            "result": {
              "status": "undefined"
            }
          },
          {
            "arguments": [],
            "keyword": "Then ",
            "line": 7,
            "name": "I should see the title",
            "result": {
              "status": "undefined"
            }
          },
          {
            "keyword": "After",
            "hidden": true,
            "match": {
              "location": "node_modules\\protractor-cucumber-framework\\lib\\resultsCapturer.js:27"
            },
            "result": {
              "status": "passed",
              "duration": 4000000
            }
          }
        ]
      }
    ]
  }
]